<svg width="80" height="80" viewBox="0 0 80 80" fill="none" xmlns="http://www.w3.org/2000/svg">
<circle cx="40" cy="40" r="40" fill="#EFF3FB"/>
<rect x="20.75" y="20.75" width="38.5" height="38.5" rx="5.25" stroke="#3265CB" stroke-width="1.5"/>
<line x1="20.6396" y1="26.3478" x2="59.3493" y2="26.3478" stroke="#3265CB" stroke-width="1.5"/>
<line x1="26.5596" y1="21.2904" x2="26.5596" y2="26.4517" stroke="#3265CB" stroke-width="1.5"/>
<rect x="26.5596" y="31.7178" width="11.4032" height="8.82258" rx="1.25" stroke="#F2994A" stroke-width="1.5"/>
<rect x="42.0391" y="44.621" width="11.4032" height="8.82258" rx="1.25" stroke="#F2994A" stroke-width="1.5"/>
<line x1="43.3301" y1="38.6049" x2="52.1527" y2="38.6049" stroke="#3265CB" stroke-width="1.5" stroke-linecap="round"/>
<line x1="27.8467" y1="51.5089" x2="36.6693" y2="51.5089" stroke="#3265CB" stroke-width="1.5" stroke-linecap="round"/>
<line x1="43.3301" y1="34.7339" x2="52.1527" y2="34.7339" stroke="#3265CB" stroke-width="1.5" stroke-linecap="round"/>
<line x1="27.8467" y1="47.6371" x2="36.6693" y2="47.6371" stroke="#3265CB" stroke-width="1.5" stroke-linecap="round"/>
</svg>
