<svg width="61" height="67" viewBox="0 0 61 67" fill="none" xmlns="http://www.w3.org/2000/svg">
<path d="M30.4606 63.5755C31.1408 64.6588 31.1411 64.6586 31.1414 64.6584L31.1423 64.6578L31.145 64.6561L31.1538 64.6505L31.185 64.6307C31.2118 64.6136 31.2505 64.5888 31.3004 64.5564C31.4003 64.4916 31.5455 64.3965 31.7314 64.2717C32.1033 64.0222 32.6387 63.6544 33.302 63.1747C34.6281 62.2158 36.4688 60.8081 38.5389 59.0049C42.6699 55.4066 47.7603 50.1942 51.4834 43.7906C55.2124 37.3772 57.1343 30.3102 58.1279 24.8819C58.6259 22.161 58.8936 19.8357 59.0369 18.187C59.1086 17.3623 59.1493 16.7058 59.1721 16.2527C59.1835 16.0262 59.1904 15.8503 59.1945 15.7296C59.1966 15.6693 59.1979 15.6227 59.1988 15.5905L59.1997 15.5529L59.1999 15.5423L59.2 15.539L59.2 15.5379C59.2 15.5375 59.2 15.5372 57.9212 15.5128L59.2 15.5372L59.2202 14.4807L58.1866 14.2615C51.0117 12.7395 44.2525 9.90944 39.2697 7.44539C36.7828 6.21557 34.7487 5.08209 33.3389 4.25771C32.6342 3.84564 32.0861 3.51112 31.716 3.28084C31.531 3.16571 31.3905 3.07667 31.2972 3.01704C31.2506 2.98723 31.2158 2.96477 31.1931 2.9501L31.1683 2.93396L31.1628 2.93037L31.1619 2.92981L31.1618 2.92971L31.1617 2.92966L30.4606 2.46999L29.7595 2.92966L29.7594 2.92971L29.7593 2.92981L29.7584 2.93037L29.7529 2.93396L29.728 2.95009C29.7054 2.96477 29.6706 2.98723 29.6239 3.01704C29.5307 3.07666 29.3902 3.16571 29.2052 3.28084C28.8351 3.51112 28.2869 3.84563 27.5822 4.25771C26.1725 5.08209 24.1384 6.21556 21.6515 7.44538C16.6687 9.90943 9.90946 12.7395 2.73457 14.2615L1.70095 14.4807L1.72112 15.5372L3 15.5128C1.72112 15.5372 1.72113 15.5375 1.72113 15.5379L1.72116 15.539L1.72122 15.5423L1.72145 15.5529L1.72239 15.5905C1.72324 15.6227 1.72459 15.6693 1.72665 15.7296C1.73077 15.8503 1.73771 16.0262 1.74911 16.2527C1.7719 16.7058 1.81257 17.3623 1.88426 18.187C2.02758 19.8357 2.29524 22.161 2.79326 24.8819C3.78687 30.3102 5.70885 37.3772 9.4378 43.7906C13.161 50.1942 18.2513 55.4066 22.3823 59.0049C24.4524 60.8081 26.293 62.2158 27.6192 63.1747C28.2825 63.6544 28.8178 64.0222 29.1897 64.2717C29.3757 64.3965 29.5208 64.4916 29.6207 64.5564C29.6707 64.5888 29.7093 64.6136 29.7361 64.6307L29.7674 64.6505L29.7762 64.6561L29.7789 64.6578L29.7798 64.6584C29.7801 64.6586 29.7804 64.6588 30.4606 63.5755ZM30.4606 63.5755L31.1408 64.6588L30.4606 65.0859L29.7804 64.6588L30.4606 63.5755Z" fill="#27AE60" stroke="#C8E9D6" stroke-width="2.55823"/>
<path d="M16.9243 26.1176L16.9216 24.9827L30.4606 16.8223L43.9968 24.9823V26.1176L16.9243 26.1176Z" fill="white"/>
<rect x="19.313" y="27.7107" width="3.18501" height="11.1475" fill="white"/>
<rect x="25.6836" y="27.7104" width="3.18501" height="11.1475" fill="white"/>
<rect x="32.0532" y="27.7104" width="3.18501" height="11.1475" fill="white"/>
<rect x="38.4238" y="27.7104" width="3.18501" height="11.1475" fill="white"/>
<rect x="16.9258" y="42.0427" width="1.5925" height="27.0668" transform="rotate(-90 16.9258 42.0427)" fill="white"/>
</svg>
